id,name,address,created,updated
1,Burapha,28/1,2024-03-31 10:27:00.000,2024-04-03 03:56:14
2,Chonburi,1/99,2024-03-31 10:28:08,2024-03-31 10:28:08
3,JJ,123,2024-03-31 11:50:38.000,2024-03-31 11:50:38.000
